%YAML 1.1
%TAG !u! tag:unity3d.com,2011:
--- !u!1045 &1
EditorBuildSettings:
  m_ObjectHideFlags: 0
  serializedVersion: 2
  m_Scenes:
  - enabled: 1
    path: Assets/Scenes/Game.unity
    guid: c4f4e94e92dec2147957433d31ce3af9
  - enabled: 1
    path: Assets/Scenes/Game2.unity
    guid: fc597fdace20be146b4af372fead3dcb
  m_configObjects: {}
